…
``` r
##The secound method
gapminder %>% 
  distinct(country)
```

    ## # A tibble: 142 x 1
    ##        country
    ##         <fctr>
    ##  1 Afghanistan
    ##  2     Albania
    ##  3     Algeria
    ##  4      Angola
    ##  5   Argentina
    ##  6   Australia
    ##  7     Austria
    ##  8     Bahrain
    ##  9  Bangladesh
    ## 10     Belgium
    ## # ... with 132 more rows
…
