…
I choose the Joey’s Singer data.

#### Factorise

*Transform some of the variable in the singer\_locations dataframe into factors: pay attention at what levels you introduce and their order. Try and consider the difference between the base R as.factor and the forcats-provided functions.*

#### Factor inspection

``` r
singer_locations
```

    ## # A tibble: 10,100 x 14
    ##              track_id                       title            song_id
    ##                 <chr>                       <chr>              <chr>
    ##  1 TRWICRA128F42368DB       The Conversation (Cd) SOSURTI12A81C22FB8
    ##  2 TRXJANY128F42246FC               Lonely Island SODESQP12A6D4F98EF
    ##  3 TRIKPCA128F424A553       Here's That Rainy Day SOQUYQD12A8C131619
    ##  4 TRYEATD128F92F87C9             Rego Park Blues SOEZGRC12AB017F1AC
    ##  5 TRBYYXH128F4264585                       Games SOPIOCP12A8C13A322
    ##  6 TRKFFKR128F9303AE3                  More Pipes SOHQSPY12AB0181325
    ##  7 TRSSNNI128F42661D8              out OF my MIND SOIHOMM12A8C139A02
    ##  8 TRXSSXI128F428FAD4 Endlich Ein Grund Zur Panik SODTXQY12A6D4F748E
    ##  9 TRDKANB128F4261BDE                 I Am A Rock SOCZZEQ12A8C1318A9
    ## 10 TRJQSXM128F932A05B             A perfect world SOFJTIS12AB0184236
    ## # ... with 10,090 more rows, and 11 more variables: release <chr>,
    ## #   artist_id <chr>, artist_name <chr>, year <int>, duration <dbl>,
    ## #   artist_hotttnesss <dbl>, artist_familiarity <dbl>, latitude <dbl>,
    ## #   longitude <dbl>, name <chr>, city <chr>
…
