…
``` r
nlevels(gapminder$country)-nlevels(new2$country)
```

    ## [1] 2

Before we have 142 levels of variable `country`, only 140 levels after removing the "Oceania". it reduces 2 levels.

``` r
gapminder %>% 
  filter(continent%in% "Oceania") %>% 
  select(country)
```

    ## # A tibble: 24 x 1
    ##      country
    ##       <fctr>
    ##  1 Australia
    ##  2 Australia
    ##  3 Australia
    ##  4 Australia
    ##  5 Australia
    ##  6 Australia
    ##  7 Australia
    ##  8 Australia
    ##  9 Australia
    ## 10 Australia
    ## # ... with 14 more rows
…
