…
**Fit a linear regression of life expectancy on year within each country. Write the estimated intercepts, slopes, and residual error variance (or sd) to file. The R package broom may be useful here.**

``` r
(gap_nested <- reordergapminder %>% 
    group_by(continent, country) %>% 
    nest())
```

    ## # A tibble: 142 x 3
    ##    continent     country              data
    ##       <fctr>      <fctr>            <list>
    ##  1      Asia Afghanistan <tibble [12 x 4]>
    ##  2    Europe     Albania <tibble [12 x 4]>
    ##  3    Africa     Algeria <tibble [12 x 4]>
    ##  4    Africa      Angola <tibble [12 x 4]>
    ##  5  Americas   Argentina <tibble [12 x 4]>
    ##  6   Oceania   Australia <tibble [12 x 4]>
    ##  7    Europe     Austria <tibble [12 x 4]>
    ##  8      Asia     Bahrain <tibble [12 x 4]>
    ##  9      Asia  Bangladesh <tibble [12 x 4]>
    ## 10    Europe     Belgium <tibble [12 x 4]>
    ## # ... with 132 more rows
…
